%YAML 1.1
%TAG !u! tag:unity3d.com,2011:
--- !u!114 &11400000
MonoBehaviour:
  m_ObjectHideFlags: 0
  m_PrefabParentObject: {fileID: 0}
  m_PrefabInternal: {fileID: 0}
  m_GameObject: {fileID: 0}
  m_Enabled: 1
  m_EditorHideFlags: 0
  m_Script: {fileID: 11500000, guid: cbde2205c34e442419c7f2bf7cac9030, type: 3}
  m_Name: TechnologyCache
  m_EditorClassIdentifier: 
  m_cache: []
--- !u!114 &114000013644483886
MonoBehaviour:
  m_ObjectHideFlags: 0
  m_PrefabParentObject: {fileID: 0}
  m_PrefabInternal: {fileID: 0}
  m_GameObject: {fileID: 0}
  m_Enabled: 1
  m_EditorHideFlags: 0
  m_Script: {fileID: 11500000, guid: 50d99abbf53471c4786bec545746cc43, type: 3}
  m_Name: 
  m_EditorClassIdentifier: 
  m_name: New record
  m_resource:
    m_wood_cost: 0
    m_stone_cost: 0
  m_previous_technology: {fileID: 114000013644483886}
  m_next_technology: {fileID: 114000013644483886}
  m_next_technology_index: 0
  m_previous_technology_index: 0
